{
  "project_info": {
    "project_number": "600395177351",
    "firebase_url": "https://origen-homepage.firebaseio.com",
    "project_id": "origen-homepage",
    "storage_bucket": "origen-homepage.appspot.com"
  },
  "client": [
    {
      "client_info": {
        "mobilesdk_app_id": "1:600395177351:android:a02b2af1530d51b2614722",
        "android_client_info": {
          "package_name": "com.origenscanner"
        }
      },
      "oauth_client": [
        {
          "client_id": "600395177351-ovkrruh2eihnfgr0qd8e0g9jemh4dhme.apps.googleusercontent.com",
          "client_type": 3
        }
      ],
      "api_key": [
        {
          "current_key": "AIzaSyD6GLEt_h9PJj_AWxnr2oD8Cblw11osOBU"
        }
      ],
      "services": {
        "appinvite_service": {
          "other_platform_oauth_client": [
            {
              "client_id": "600395177351-ovkrruh2eihnfgr0qd8e0g9jemh4dhme.apps.googleusercontent.com",
              "client_type": 3
            },
            {
              "client_id": "600395177351-ao9bi8hb12pjs51admiujo9fg38g7hd1.apps.googleusercontent.com",
              "client_type": 2,
              "ios_info": {
                "bundle_id": "com.origenart.aytech.app.scanner",
                "app_store_id": "1497364900"
              }
            }
          ]
        }
      }
    }
  ],
  "configuration_version": "1"
}